\relax 
\@writefile{toc}{\contentsline {subsection}{\numberline {1.1}Happiness is a Regression Model}{1}}
\@writefile{toc}{\contentsline {subsection}{\numberline {1.2}Values of Soccer Players in FIFA 2019}{1}}
\@writefile{toc}{\contentsline {subsection}{\numberline {1.3}(c)}{2}}
