\relax 
\@writefile{toc}{\contentsline {subsection}{\numberline {1.1}Feature Types and Feature Encoding}{1}\protected@file@percent }
\@writefile{lot}{\contentsline {table}{\numberline {1}{\ignorespaces corresponding values}}{2}\protected@file@percent }
\newlabel{tab:table1}{{1}{2}}
\@writefile{toc}{\contentsline {subsection}{\numberline {1.2}Optimal Coefficients for Ordinary Least Squares}{3}\protected@file@percent }
\@writefile{toc}{\contentsline {subsection}{\numberline {1.3}Feature Importance}{3}\protected@file@percent }
